…
Let's make a new script for this episode, by choosing the menu options _File_, _New File_, _R Script_.

One key thing to note is that the tidyverse duplicates many base R functions e.g.  
we can load our dataset using the tidyverse function `read_csv` rather than read.csv:


``` r
library(tidyverse)
penguins <- read_csv("data/penguins_teaching.csv", col_types = cols(year = col_character()))
penguins
```

``` output
# A tibble: 344 × 8
   species island    bill_length_mm bill_depth_mm flipper_length_mm body_mass_g
   <chr>   <chr>              <dbl>         <dbl>             <dbl>       <dbl>
 1 Adelie  Torgersen           39.1          18.7              181        3750 
 2 Adelie  Torgersen           39.5          17.4              186        3800 
 3 Adelie  Torgersen           40.3          18                195        3250 
 4 Adelie  Torgersen           43.9          17.2              201.       4202.
 5 Adelie  Torgersen           36.7          19.3              193        3450 
 6 Adelie  Torgersen           39.3          20.6              190        3650 
 7 Adelie  Torgersen           38.9          17.8              181        3625 
 8 Adelie  Torgersen           39.2          19.6              195        4675 
 9 Adelie  Torgersen           34.1          18.1              193        3475 
10 Adelie  Torgersen           42            20.2              190        4250 
# ℹ 334 more rows
# ℹ 2 more variables: sex <chr>, year <chr>
```
…
